cpu_sim.vcd
$date
	Thu Jul  9 10:57:51 2026
$end
$version
	Icarus Verilog
$end
$timescale
	1ps
$end
$scope module cpu_tb $end
$var reg 1 ! clk $end
$var reg 1 " reset $end
$var reg 1 # reset_all $end
$scope module CPU1 $end
$var wire 8 $ bus [7:0] $end
$var wire 1 ! clk $end
$var wire 1 " reset $end
$var wire 1 # reset_all $end
$var wire 1 % wr $end
$var wire 1 & switch $end
$var wire 1 ' reset_registers $end
$var wire 1 ( reset_pc $end
$var wire 1 ) reset_ir $end
$var wire 1 * pc_out $end
$var wire 3 + opcode [2:0] $end
$var wire 2 , op [1:0] $end
$var wire 1 - load_ir $end
$var wire 1 . load_b $end
$var wire 1 / load_acc $end
$var wire 1 0 jump $end
$var wire 1 1 drive_ir $end
$var wire 1 2 drive_b $end
$var wire 1 3 drive_acc $end
$var wire 1 4 ce $end
$var wire 1 5 alu_drive $end
$scope module cu $end
$var wire 1 ! clk $end
$var wire 1 " reset $end
$var wire 1 # reset_all $end
$var wire 3 6 opcode [2:0] $end
$var parameter 32 7 Add $end
$var parameter 32 8 Decode $end
$var parameter 32 9 Fetch1 $end
$var parameter 32 : Fetch2 $end
$var parameter 32 ; Halt $end
$var parameter 32 < Jump $end
$var parameter 32 = LoadA1 $end
$var parameter 32 > LoadA2 $end
$var parameter 32 ? LoadB1 $end
$var parameter 32 @ LoadB2 $end
$var parameter 32 A Out $end
$var parameter 32 B Store1 $end
$var parameter 32 C Store2 $end
$var parameter 32 D Sub $end
$var reg 1 5 alu_drive $end
$var reg 1 4 ce $end
$var reg 1 3 drive_acc $end
$var reg 1 2 drive_b $end
$var reg 1 1 drive_ir $end
$var reg 1 0 jump $end
$var reg 1 / load_acc $end
$var reg 1 . load_b $end
$var reg 1 - load_ir $end
$var reg 2 E op [1:0] $end
$var reg 1 * pc_out $end
$var reg 1 ) reset_ir $end
$var reg 1 ( reset_pc $end
$var reg 1 ' reset_registers $end
$var reg 4 F state [3:0] $end
$var reg 1 & switch $end
$var reg 1 % wr $end
$upscope $end
$scope module dp1 $end
$var wire 1 5 alu_drive $end
$var wire 8 G bus [7:0] $end
$var wire 1 4 ce $end
$var wire 1 ! clk $end
$var wire 1 3 drive_acc $end
$var wire 1 2 drive_b $end
$var wire 1 1 drive_ir $end
$var wire 1 0 jump $end
$var wire 1 / load_acc $end
$var wire 1 . load_b $end
$var wire 1 - load_ir $end
$var wire 2 H op [1:0] $end
$var wire 1 * pc_out $end
$var wire 1 " reset $end
$var wire 1 ) reset_ir $end
$var wire 1 ( reset_pc $end
$var wire 1 ' reset_registers $end
$var wire 1 & switch $end
$var wire 1 % wr $end
$var wire 3 I opcode [2:0] $end
$var wire 8 J ALU_out [7:0] $end
$scope module b_s $end
$var wire 8 K ALU_out [7:0] $end
$var wire 1 5 alu_drive $end
$var wire 8 L bus [7:0] $end
$var wire 1 ! clk $end
$var wire 1 3 drive_acc $end
$var wire 1 2 drive_b $end
$var wire 1 / load_acc $end
$var wire 1 . load_b $end
$var wire 2 M op [1:0] $end
$var wire 1 ' reset $end
$var wire 8 N b_data_out [7:0] $end
$var wire 8 O alu_out [7:0] $end
$var wire 8 P acc_data_out [7:0] $end
$scope module ACC $end
$var wire 8 Q bus [7:0] $end
$var wire 1 ! clk $end
$var wire 8 R data_out [7:0] $end
$var wire 1 3 drive $end
$var wire 1 / load $end
$var wire 1 ' reset $end
$var reg 8 S info [7:0] $end
$upscope $end
$scope module B $end
$var wire 8 T bus [7:0] $end
$var wire 1 ! clk $end
$var wire 8 U data_out [7:0] $end
$var wire 1 2 drive $end
$var wire 1 . load $end
$var wire 1 ' reset $end
$var reg 8 V info [7:0] $end
$upscope $end
$scope module f1 $end
$var wire 4 W m [3:0] $end
$var wire 4 X n [3:0] $end
$var wire 2 Y op [1:0] $end
$var wire 4 Z sum_out [3:0] $end
$var wire 4 [ rem_out [3:0] $end
$var wire 4 \ quo_out [3:0] $end
$var wire 8 ] mult_out [7:0] $end
$var wire 4 ^ diff_out [3:0] $end
$var wire 1 _ carry_out $end
$var wire 1 ` borrow_out $end
$var reg 8 a ans [7:0] $end
$scope module a1 $end
$var wire 4 b a [3:0] $end
$var wire 4 c b [3:0] $end
$var wire 4 d s [3:0] $end
$var wire 1 _ cfinal $end
$var wire 4 e c [3:0] $end
$scope module f1 $end
$var wire 1 f cin $end
$var wire 1 g cout $end
$var wire 1 h x $end
$var wire 1 i y $end
$var wire 1 j s1 $end
$var wire 1 k s $end
$var wire 1 l c2 $end
$var wire 1 m c1 $end
$scope module h1 $end
$var wire 1 h a $end
$var wire 1 i b $end
$var wire 1 m carry $end
$var wire 1 j sum $end
$upscope $end
$scope module h2 $end
$var wire 1 j a $end
$var wire 1 f b $end
$var wire 1 l carry $end
$var wire 1 k sum $end
$upscope $end
$upscope $end
$scope module f2 $end
$var wire 1 n cin $end
$var wire 1 o cout $end
$var wire 1 p x $end
$var wire 1 q y $end
$var wire 1 r s1 $end
$var wire 1 s s $end
$var wire 1 t c2 $end
$var wire 1 u c1 $end
$scope module h1 $end
$var wire 1 p a $end
$var wire 1 q b $end
$var wire 1 u carry $end
$var wire 1 r sum $end
$upscope $end
$scope module h2 $end
$var wire 1 r a $end
$var wire 1 n b $end
$var wire 1 t carry $end
$var wire 1 s sum $end
$upscope $end
$upscope $end
$scope module f3 $end
$var wire 1 v cin $end
$var wire 1 w cout $end
$var wire 1 x x $end
$var wire 1 y y $end
$var wire 1 z s1 $end
$var wire 1 { s $end
$var wire 1 | c2 $end
$var wire 1 } c1 $end
$scope module h1 $end
$var wire 1 x a $end
$var wire 1 y b $end
$var wire 1 } carry $end
$var wire 1 z sum $end
$upscope $end
$scope module h2 $end
$var wire 1 z a $end
$var wire 1 v b $end
$var wire 1 | carry $end
$var wire 1 { sum $end
$upscope $end
$upscope $end
$scope module h $end
$var wire 1 ~ a $end
$var wire 1 !" b $end
$var wire 1 "" carry $end
$var wire 1 #" sum $end
$upscope $end
$upscope $end
$scope module d1 $end
$var wire 4 $" a [3:0] $end
$var wire 4 %" b [3:0] $end
$var wire 4 &" r [3:0] $end
$var wire 4 '" q [3:0] $end
$upscope $end
$scope module m1 $end
$var wire 4 (" a [3:0] $end
$var wire 4 )" b [3:0] $end
$var wire 8 *" p [7:0] $end
$scope module f1 $end
$var wire 1 +" cout $end
$var wire 1 ," x $end
$var wire 1 -" y $end
$var wire 1 ." s1 $end
$var wire 1 /" s $end
$var wire 1 0" cin $end
$var wire 1 1" c2 $end
$var wire 1 2" c1 $end
$scope module h1 $end
$var wire 1 ," a $end
$var wire 1 -" b $end
$var wire 1 2" carry $end
$var wire 1 ." sum $end
$upscope $end
$scope module h2 $end
$var wire 1 ." a $end
$var wire 1 1" carry $end
$var wire 1 /" sum $end
$var wire 1 0" b $end
$upscope $end
$upscope $end
$scope module f2 $end
$var wire 1 +" cin $end
$var wire 1 3" cout $end
$var wire 1 4" x $end
$var wire 1 5" y $end
$var wire 1 6" s1 $end
$var wire 1 7" s $end
$var wire 1 8" c2 $end
$var wire 1 9" c1 $end
$scope module h1 $end
$var wire 1 4" a $end
$var wire 1 5" b $end
$var wire 1 9" carry $end
$var wire 1 6" sum $end
$upscope $end
$scope module h2 $end
$var wire 1 6" a $end
$var wire 1 +" b $end
$var wire 1 8" carry $end
$var wire 1 7" sum $end
$upscope $end
$upscope $end
$scope module f3 $end
$var wire 1 :" cout $end
$var wire 1 ;" x $end
$var wire 1 7" y $end
$var wire 1 <" s1 $end
$var wire 1 =" s $end
$var wire 1 >" cin $end
$var wire 1 ?" c2 $end
$var wire 1 @" c1 $end
$scope module h1 $end
$var wire 1 ;" a $end
$var wire 1 7" b $end
$var wire 1 @" carry $end
$var wire 1 <" sum $end
$upscope $end
$scope module h2 $end
$var wire 1 <" a $end
$var wire 1 ?" carry $end
$var wire 1 =" sum $end
$var wire 1 >" b $end
$upscope $end
$upscope $end
$scope module f4 $end
$var wire 1 :" cin $end
$var wire 1 A" cout $end
$var wire 1 B" x $end
$var wire 1 C" y $end
$var wire 1 D" s1 $end
$var wire 1 E" s $end
$var wire 1 F" c2 $end
$var wire 1 G" c1 $end
$scope module h1 $end
$var wire 1 B" a $end
$var wire 1 G" carry $end
$var wire 1 D" sum $end
$var wire 1 C" b $end
$upscope $end
$scope module h2 $end
$var wire 1 D" a $end
$var wire 1 :" b $end
$var wire 1 F" carry $end
$var wire 1 E" sum $end
$upscope $end
$upscope $end
$scope module f5 $end
$var wire 1 H" cout $end
$var wire 1 I" x $end
$var wire 1 E" y $end
$var wire 1 J" s1 $end
$var wire 1 K" s $end
$var wire 1 L" cin $end
$var wire 1 M" c2 $end
$var wire 1 N" c1 $end
$scope module h1 $end
$var wire 1 I" a $end
$var wire 1 E" b $end
$var wire 1 N" carry $end
$var wire 1 J" sum $end
$upscope $end
$scope module h2 $end
$var wire 1 J" a $end
$var wire 1 M" carry $end
$var wire 1 K" sum $end
$var wire 1 L" b $end
$upscope $end
$upscope $end
$scope module f6 $end
$var wire 1 A" cin $end
$var wire 1 O" cout $end
$var wire 1 P" x $end
$var wire 1 Q" y $end
$var wire 1 R" s1 $end
$var wire 1 S" s $end
$var wire 1 T" c2 $end
$var wire 1 U" c1 $end
$scope module h1 $end
$var wire 1 P" a $end
$var wire 1 U" carry $end
$var wire 1 R" sum $end
$var wire 1 Q" b $end
$upscope $end
$scope module h2 $end
$var wire 1 R" a $end
$var wire 1 A" b $end
$var wire 1 T" carry $end
$var wire 1 S" sum $end
$upscope $end
$upscope $end
$scope module f7 $end
$var wire 1 H" cin $end
$var wire 1 V" cout $end
$var wire 1 W" x $end
$var wire 1 S" y $end
$var wire 1 X" s1 $end
$var wire 1 Y" s $end
$var wire 1 Z" c2 $end
$var wire 1 [" c1 $end
$scope module h1 $end
$var wire 1 W" a $end
$var wire 1 S" b $end
$var wire 1 [" carry $end
$var wire 1 X" sum $end
$upscope $end
$scope module h2 $end
$var wire 1 X" a $end
$var wire 1 H" b $end
$var wire 1 Z" carry $end
$var wire 1 Y" sum $end
$upscope $end
$upscope $end
$scope module f8 $end
$var wire 1 V" cin $end
$var wire 1 \" cout $end
$var wire 1 ]" x $end
$var wire 1 O" y $end
$var wire 1 ^" s1 $end
$var wire 1 _" s $end
$var wire 1 `" c2 $end
$var wire 1 a" c1 $end
$scope module h1 $end
$var wire 1 ]" a $end
$var wire 1 O" b $end
$var wire 1 a" carry $end
$var wire 1 ^" sum $end
$upscope $end
$scope module h2 $end
$var wire 1 ^" a $end
$var wire 1 V" b $end
$var wire 1 `" carry $end
$var wire 1 _" sum $end
$upscope $end
$upscope $end
$scope module h1 $end
$var wire 1 b" a $end
$var wire 1 c" b $end
$var wire 1 0" carry $end
$var wire 1 d" sum $end
$upscope $end
$scope module h2 $end
$var wire 1 e" a $end
$var wire 1 /" b $end
$var wire 1 >" carry $end
$var wire 1 f" sum $end
$upscope $end
$scope module h3 $end
$var wire 1 g" a $end
$var wire 1 =" b $end
$var wire 1 L" carry $end
$var wire 1 h" sum $end
$upscope $end
$scope module h4 $end
$var wire 1 i" a $end
$var wire 1 3" b $end
$var wire 1 Q" carry $end
$var wire 1 C" sum $end
$upscope $end
$upscope $end
$scope module s1 $end
$var wire 4 j" a [3:0] $end
$var wire 4 k" b [3:0] $end
$var wire 1 ` borrow $end
$var wire 1 l" ci $end
$var wire 4 m" not_b [3:0] $end
$var wire 4 n" diff [3:0] $end
$var wire 4 o" c [3:0] $end
$scope module fs1 $end
$var wire 1 l" cin $end
$var wire 1 p" cout $end
$var wire 1 q" x $end
$var wire 1 r" y $end
$var wire 1 s" s1 $end
$var wire 1 t" s $end
$var wire 1 u" c2 $end
$var wire 1 v" c1 $end
$scope module h1 $end
$var wire 1 q" a $end
$var wire 1 r" b $end
$var wire 1 v" carry $end
$var wire 1 s" sum $end
$upscope $end
$scope module h2 $end
$var wire 1 s" a $end
$var wire 1 l" b $end
$var wire 1 u" carry $end
$var wire 1 t" sum $end
$upscope $end
$upscope $end
$scope module fs2 $end
$var wire 1 w" cin $end
$var wire 1 x" cout $end
$var wire 1 y" x $end
$var wire 1 z" y $end
$var wire 1 {" s1 $end
$var wire 1 |" s $end
$var wire 1 }" c2 $end
$var wire 1 ~" c1 $end
$scope module h1 $end
$var wire 1 y" a $end
$var wire 1 z" b $end
$var wire 1 ~" carry $end
$var wire 1 {" sum $end
$upscope $end
$scope module h2 $end
$var wire 1 {" a $end
$var wire 1 w" b $end
$var wire 1 }" carry $end
$var wire 1 |" sum $end
$upscope $end
$upscope $end
$scope module fs3 $end
$var wire 1 !# cin $end
$var wire 1 "# cout $end
$var wire 1 ## x $end
$var wire 1 $# y $end
$var wire 1 %# s1 $end
$var wire 1 &# s $end
$var wire 1 '# c2 $end
$var wire 1 (# c1 $end
$scope module h1 $end
$var wire 1 ## a $end
$var wire 1 $# b $end
$var wire 1 (# carry $end
$var wire 1 %# sum $end
$upscope $end
$scope module h2 $end
$var wire 1 %# a $end
$var wire 1 !# b $end
$var wire 1 '# carry $end
$var wire 1 &# sum $end
$upscope $end
$upscope $end
$scope module fs4 $end
$var wire 1 )# cin $end
$var wire 1 *# cout $end
$var wire 1 +# x $end
$var wire 1 ,# y $end
$var wire 1 -# s1 $end
$var wire 1 .# s $end
$var wire 1 /# c2 $end
$var wire 1 0# c1 $end
$scope module h1 $end
$var wire 1 +# a $end
$var wire 1 ,# b $end
$var wire 1 0# carry $end
$var wire 1 -# sum $end
$upscope $end
$scope module h2 $end
$var wire 1 -# a $end
$var wire 1 )# b $end
$var wire 1 /# carry $end
$var wire 1 .# sum $end
$upscope $end
$upscope $end
$upscope $end
$upscope $end
$upscope $end
$scope module ir $end
$var wire 8 1# bus [7:0] $end
$var wire 1 ! clk $end
$var wire 1 1 drive $end
$var wire 1 - load $end
$var wire 1 ) reset $end
$var wire 3 2# opcode [2:0] $end
$var wire 5 3# info [4:0] $end
$var reg 8 4# data [7:0] $end
$upscope $end
$scope module pc $end
$var wire 8 5# bus [7:0] $end
$var wire 1 4 ce $end
$var wire 1 ! clk $end
$var wire 1 0 jump $end
$var wire 1 * pc_out $end
$var wire 1 ( reset $end
$var reg 4 6# addr [3:0] $end
$upscope $end
$scope module ram $end
$var wire 8 7# bus [7:0] $end
$var wire 1 ! clk $end
$var wire 1 & switch $end
$var wire 1 % wr $end
$var reg 4 8# address [3:0] $end
$upscope $end
$upscope $end
$upscope $end
$upscope $end
$enddefinitions $end
$comment Show the parameter values. $end
$dumpall
b110 D
b1011 C
b1010 B
b1000 A
b100 @
b11 ?
b10 >
b1 =
b111 <
b1001 ;
b1101 :
b1100 9
b1110 8
b101 7
$end
#0
$dumpvars
bx 8#
bx 7#
bx 6#
bx 5#
bx 4#
bx 3#
bx 2#
bx 1#
x0#
x/#
x.#
x-#
x,#
x+#
x*#
x)#
x(#
x'#
x&#
x%#
x$#
x##
x"#
x!#
x~"
x}"
x|"
x{"
xz"
xy"
xx"
xw"
xv"
xu"
xt"
xs"
xr"
xq"
xp"
bx o"
bx n"
bx m"
1l"
bx k"
bx j"
xi"
xh"
xg"
xf"
xe"
xd"
xc"
xb"
xa"
x`"
x_"
x^"
x]"
x\"
x["
xZ"
xY"
xX"
xW"
xV"
xU"
xT"
xS"
xR"
xQ"
xP"
xO"
xN"
xM"
xL"
xK"
xJ"
xI"
xH"
xG"
xF"
xE"
xD"
xC"
xB"
xA"
x@"
x?"
x>"
x="
x<"
x;"
x:"
x9"
x8"
x7"
x6"
x5"
x4"
x3"
x2"
x1"
x0"
x/"
x."
x-"
x,"
x+"
bx *"
bx )"
bx ("
bx '"
bx &"
bx %"
bx $"
x#"
x""
x!"
x~
x}
x|
x{
xz
xy
xx
xw
xv
xu
xt
xs
xr
xq
xp
xo
xn
xm
xl
xk
xj
xi
xh
xg
xf
bx e
bx d
bx c
bx b
bx a
x`
x_
bx ^
bx ]
bx \
bx [
bx Z
bx Y
bx X
bx W
bx V
bx U
bx T
bx S
bx R
bx Q
bx P
bx O
bx N
bx M
bx L
bx K
bx J
bx I
bx H
bx G
bx F
bx E
bx 6
x5
x4
x3
x2
x1
x0
x/
x.
x-
bx ,
bx +
x*
1)
1(
1'
x&
x%
bx $
1#
1"
0!
$end
#5000
0`
1*#
1/#
0.#
1)#
0Y"
1"#
0X"
0\"
1'#
0&#
0h"
0S"
0K"
0`"
0_"
1!#
0="
0A"
0J"
0V"
0^"
1x"
0<"
0F"
0E"
0D"
0Z"
0O"
1}"
0|"
0s
0{
07"
0f"
0:"
0C"
0H"
0T"
1w"
0k
0n
0v
0_
0+"
01"
0/"
0?"
03"
08"
0M"
0R"
b1111 o"
1p"
1u"
b0 ^
b0 n"
0t"
0f
0g
0l
0o
0t
0w
0|
b0 J
b0 K
b0 O
b0 a
00"
0d"
02"
0."
0>"
09"
06"
0@"
0L"
0Q"
0G"
0N"
0U"
0["
0a"
0v"
1s"
0~"
1{"
0(#
1%#
00#
1-#
b0 e
0""
b0 Z
b0 d
0#"
0m
0j
0u
0r
0}
0z
b1111 \
b1111 '"
b1111 [
b1111 &"
b0 ]
b0 *"
0b"
0c"
0,"
0-"
0e"
04"
05"
0;"
0g"
0i"
0B"
0I"
0P"
0W"
0]"
1r"
1z"
1$#
1,#
0~
0h
0p
0x
0q"
0y"
0##
0+#
0!"
0i
0q
0y
b1111 m"
b0 W
b0 b
b0 $"
b0 ("
b0 j"
b0 X
b0 c
b0 %"
b0 )"
b0 k"
b0 +
b0 6
b0 I
b0 2#
b0 3#
b1100 F
b0 P
b0 R
b0 S
b0 N
b0 U
b0 V
b0 4#
b0 6#
1!
#6000
b0 $
b0 G
b0 L
b0 Q
b0 T
b0 1#
b0 5#
b0 7#
0)
0(
0&
b0 ,
b0 E
b0 H
b0 M
b0 Y
00
0'
05
02
0.
03
0/
01
0-
1%
04
1*
0#
0"
#10000
0!
#15000
bx $
bx G
bx L
bx Q
bx T
bx 1#
bx 5#
bx 7#
14
1-
0%
0*
b0 8#
b1101 F
1!
#20000
0!
#25000
bz $
bz G
bz L
bz Q
bz T
bz 1#
bz 5#
bz 7#
0-
1%
04
bx +
bx 6
bx I
bx 2#
bx 3#
b1110 F
bx 4#
b1 6#
1!
#30000
0!
#35000
b1 $
b1 G
b1 L
b1 Q
b1 T
b1 1#
b1 5#
b1 7#
1*
bz 8#
b1100 F
1!
#40000
0!
#45000
bx $
bx G
bx L
bx Q
bx T
bx 1#
bx 5#
bx 7#
14
1-
0%
0*
b1101 F
b1 8#
1!
#50000
0!
#55000
bz $
bz G
bz L
bz Q
bz T
bz 1#
bz 5#
bz 7#
0-
1%
04
b10 6#
b1110 F
1!
#60000
0!
#65000
b10 $
b10 G
b10 L
b10 Q
b10 T
b10 1#
b10 5#
b10 7#
1*
b1100 F
bz 8#
1!
#70000
0!
#75000
bx $
bx G
bx L
bx Q
bx T
bx 1#
bx 5#
bx 7#
14
1-
0%
0*
b10 8#
b1101 F
1!
#80000
0!
#85000
bz $
bz G
bz L
bz Q
bz T
bz 1#
bz 5#
bz 7#
0-
1%
04
b1110 F
b11 6#
1!
#90000
0!
#95000
b11 $
b11 G
b11 L
b11 Q
b11 T
b11 1#
b11 5#
b11 7#
1*
bz 8#
b1100 F
1!
#100000
0!
#105000
bx $
bx G
bx L
bx Q
bx T
bx 1#
bx 5#
bx 7#
14
1-
0%
0*
b1101 F
b11 8#
1!
#110000
0!
#115000
bz $
bz G
bz L
bz Q
bz T
bz 1#
bz 5#
bz 7#
0-
1%
04
b100 6#
b1110 F
1!
#120000
0!
#125000
b100 $
b100 G
b100 L
b100 Q
b100 T
b100 1#
b100 5#
b100 7#
1*
b1100 F
bz 8#
1!
#130000
0!
#135000
bx $
bx G
bx L
bx Q
bx T
bx 1#
bx 5#
bx 7#
14
1-
0%
0*
b100 8#
b1101 F
1!
#140000
0!
#145000
bz $
bz G
bz L
bz Q
bz T
bz 1#
bz 5#
bz 7#
0-
1%
04
b1110 F
b101 6#
1!
#150000
0!
#155000
b101 $
b101 G
b101 L
b101 Q
b101 T
b101 1#
b101 5#
b101 7#
1*
bz 8#
b1100 F
1!
#160000
0!
#165000
bx $
bx G
bx L
bx Q
bx T
bx 1#
bx 5#
bx 7#
14
1-
0%
0*
b1101 F
b101 8#
1!
#170000
0!
#175000
bz $
bz G
bz L
bz Q
bz T
bz 1#
bz 5#
bz 7#
0-
1%
04
b110 6#
b1110 F
1!
#180000
0!
#185000
b110 $
b110 G
b110 L
b110 Q
b110 T
b110 1#
b110 5#
b110 7#
1*
b1100 F
bz 8#
1!
#190000
0!
#195000
bx $
bx G
bx L
bx Q
bx T
bx 1#
bx 5#
bx 7#
14
1-
0%
0*
b110 8#
b1101 F
1!
#200000
0!
#205000
bz $
bz G
bz L
bz Q
bz T
bz 1#
bz 5#
bz 7#
0-
1%
04
b1110 F
b111 6#
1!
#210000
0!
#215000
b111 $
b111 G
b111 L
b111 Q
b111 T
b111 1#
b111 5#
b111 7#
1*
bz 8#
b1100 F
1!
#220000
0!
#225000
bx $
bx G
bx L
bx Q
bx T
bx 1#
bx 5#
bx 7#
14
1-
0%
0*
b1101 F
b111 8#
1!
#230000
0!
#235000
bz $
bz G
bz L
bz Q
bz T
bz 1#
bz 5#
bz 7#
0-
1%
04
b1000 6#
b1110 F
1!
#240000
0!
#245000
b1000 $
b1000 G
b1000 L
b1000 Q
b1000 T
b1000 1#
b1000 5#
b1000 7#
1*
b1100 F
bz 8#
1!
#250000
0!
#255000
bx $
bx G
bx L
bx Q
bx T
bx 1#
bx 5#
bx 7#
14
1-
0%
0*
b1000 8#
b1101 F
1!
#260000
0!
#265000
bz $
bz G
bz L
bz Q
bz T
bz 1#
bz 5#
bz 7#
0-
1%
04
b1110 F
b1001 6#
1!
#270000
0!
#275000
b1001 $
b1001 G
b1001 L
b1001 Q
b1001 T
b1001 1#
b1001 5#
b1001 7#
1*
bz 8#
b1100 F
1!
#280000
0!
#285000
bx $
bx G
bx L
bx Q
bx T
bx 1#
bx 5#
bx 7#
14
1-
0%
0*
b1101 F
b1001 8#
1!
#290000
0!
#295000
bz $
bz G
bz L
bz Q
bz T
bz 1#
bz 5#
bz 7#
0-
1%
04
b1010 6#
b1110 F
1!
#300000
0!
#305000
b1010 $
b1010 G
b1010 L
b1010 Q
b1010 T
b1010 1#
b1010 5#
b1010 7#
1*
b1100 F
bz 8#
1!
#310000
0!
#315000
bx $
bx G
bx L
bx Q
bx T
bx 1#
bx 5#
bx 7#
14
1-
0%
0*
b1010 8#
b1101 F
1!
#320000
0!
#325000
bz $
bz G
bz L
bz Q
bz T
bz 1#
bz 5#
bz 7#
0-
1%
04
b1110 F
b1011 6#
1!
#330000
0!
#335000
b1011 $
b1011 G
b1011 L
b1011 Q
b1011 T
b1011 1#
b1011 5#
b1011 7#
1*
bz 8#
b1100 F
1!
#340000
0!
#345000
bx $
bx G
bx L
bx Q
bx T
bx 1#
bx 5#
bx 7#
14
1-
0%
0*
b1101 F
b1011 8#
1!
#350000
0!
#355000
bz $
bz G
bz L
bz Q
bz T
bz 1#
bz 5#
bz 7#
0-
1%
04
b1100 6#
b1110 F
1!
#360000
0!
#365000
b1100 $
b1100 G
b1100 L
b1100 Q
b1100 T
b1100 1#
b1100 5#
b1100 7#
1*
b1100 F
bz 8#
1!
#370000
0!
#375000
bx $
bx G
bx L
bx Q
bx T
bx 1#
bx 5#
bx 7#
14
1-
0%
0*
b1100 8#
b1101 F
1!
#380000
0!
#385000
bz $
bz G
bz L
bz Q
bz T
bz 1#
bz 5#
bz 7#
0-
1%
04
b1110 F
b1101 6#
1!
#390000
0!
#395000
b1101 $
b1101 G
b1101 L
b1101 Q
b1101 T
b1101 1#
b1101 5#
b1101 7#
1*
bz 8#
b1100 F
1!
#400000
0!
#405000
bx $
bx G
bx L
bx Q
bx T
bx 1#
bx 5#
bx 7#
14
1-
0%
0*
b1101 F
b1101 8#
1!
#410000
0!
#415000
bz $
bz G
bz L
bz Q
bz T
bz 1#
bz 5#
bz 7#
0-
1%
04
b1110 6#
b1110 F
1!
#420000
0!
#425000
b1110 $
b1110 G
b1110 L
b1110 Q
b1110 T
b1110 1#
b1110 5#
b1110 7#
1*
b1100 F
bz 8#
1!
#430000
0!
#435000
b0 $
b0 G
b0 L
b0 Q
b0 T
b0 1#
b0 5#
b0 7#
14
1-
0%
0*
b1110 8#
b1101 F
1!
#440000
0!
#445000
bz $
bz G
bz L
bz Q
bz T
bz 1#
bz 5#
bz 7#
0-
1%
04
b0 +
b0 6
b0 I
b0 2#
b0 3#
b1110 F
b0 4#
b1111 6#
1!
#450000
0!
#455000
b0 $
b0 G
b0 L
b0 Q
b0 T
b0 1#
b0 5#
b0 7#
11
bz 8#
b1 F
1!
#460000
0!
#465000
bx $
bx G
bx L
bx Q
bx T
bx 1#
bx 5#
bx 7#
1/
1&
0%
01
b10 F
b0 8#
1!
#470000
0!
#475000
x`
xw"
x!#
x)#
b0xxxx J
b0xxxx K
b0xxxx O
b0xxxx a
xk
xs
x{
xp"
xu"
xt"
xx"
x}"
x|"
x"#
x'#
x&#
bx o"
x*#
x/#
bx ^
bx n"
x.#
bx Z
bx d
x#"
xj
xr
xz
xv"
xs"
x~"
x{"
x(#
x%#
x0#
x-#
x~
xh
xp
xx
xq"
xy"
x##
x+#
b1111 $
b1111 G
b1111 L
b1111 Q
b1111 T
b1111 1#
b1111 5#
b1111 7#
bx W
bx b
bx $"
bx ("
bx j"
1*
0&
0/
1%
bx P
bx R
bx S
b1100 F
1!
#480000
0!
#485000
b1 $
b1 G
b1 L
b1 Q
b1 T
b1 1#
b1 5#
b1 7#
14
1-
0%
0*
b1101 F
b1111 8#
1!
#490000
0!
#495000
bz $
bz G
bz L
bz Q
bz T
bz 1#
bz 5#
bz 7#
b1 3#
0-
1%
04
b0 6#
b1 4#
b1110 F
1!
#500000
0!
#505000
b1 $
b1 G
b1 L
b1 Q
b1 T
b1 1#
b1 5#
b1 7#
11
b1 F
bz 8#
1!
#510000
0!
#515000
bx $
bx G
bx L
bx Q
bx T
bx 1#
bx 5#
bx 7#
1/
1&
0%
01
b1 8#
b10 F
1!
#520000
0!
#525000
b0 $
b0 G
b0 L
b0 Q
b0 T
b0 1#
b0 5#
b0 7#
1*
0&
0/
1%
b1100 F
1!
#530000
0!
#535000
bx $
bx G
bx L
bx Q
bx T
bx 1#
bx 5#
bx 7#
14
1-
0%
0*
b0 8#
b1101 F
1!
#540000
0!
#545000
bz $
bz G
bz L
bz Q
bz T
bz 1#
bz 5#
bz 7#
0-
1%
04
bx +
bx 6
bx I
bx 2#
bx 3#
b1110 F
bx 4#
b1 6#
1!
#550000
0!
#555000
b1 $
b1 G
b1 L
b1 Q
b1 T
b1 1#
b1 5#
b1 7#
1*
bz 8#
b1100 F
1!
#560000
0!
#565000
bx $
bx G
bx L
bx Q
bx T
bx 1#
bx 5#
bx 7#
14
1-
0%
0*
b1101 F
b1 8#
1!
#570000
0!
#575000
bz $
bz G
bz L
bz Q
bz T
bz 1#
bz 5#
bz 7#
0-
1%
04
b10 6#
b1110 F
1!
#580000
0!
#585000
b10 $
b10 G
b10 L
b10 Q
b10 T
b10 1#
b10 5#
b10 7#
1*
b1100 F
bz 8#
1!
#590000
0!
#595000
bx $
bx G
bx L
bx Q
bx T
bx 1#
bx 5#
bx 7#
14
1-
0%
0*
b10 8#
b1101 F
1!
#600000
0!
#605000
bz $
bz G
bz L
bz Q
bz T
bz 1#
bz 5#
bz 7#
0-
1%
04
b1110 F
b11 6#
1!
#610000
0!
#615000
b11 $
b11 G
b11 L
b11 Q
b11 T
b11 1#
b11 5#
b11 7#
1*
bz 8#
b1100 F
1!
#620000
0!
#625000
bx $
bx G
bx L
bx Q
bx T
bx 1#
bx 5#
bx 7#
14
1-
0%
0*
b1101 F
b11 8#
1!
#630000
0!
#635000
bz $
bz G
bz L
bz Q
bz T
bz 1#
bz 5#
bz 7#
0-
1%
04
b100 6#
b1110 F
1!
#640000
0!
#645000
b100 $
b100 G
b100 L
b100 Q
b100 T
b100 1#
b100 5#
b100 7#
1*
b1100 F
bz 8#
1!
#650000
0!
#655000
bx $
bx G
bx L
bx Q
bx T
bx 1#
bx 5#
bx 7#
14
1-
0%
0*
b100 8#
b1101 F
1!
#660000
0!
#665000
bz $
bz G
bz L
bz Q
bz T
bz 1#
bz 5#
bz 7#
0-
1%
04
b1110 F
b101 6#
1!
#670000
0!
#675000
b101 $
b101 G
b101 L
b101 Q
b101 T
b101 1#
b101 5#
b101 7#
1*
bz 8#
b1100 F
1!
#680000
0!
#685000
bx $
bx G
bx L
bx Q
bx T
bx 1#
bx 5#
bx 7#
14
1-
0%
0*
b1101 F
b101 8#
1!
#690000
0!
#695000
bz $
bz G
bz L
bz Q
bz T
bz 1#
bz 5#
bz 7#
0-
1%
04
b110 6#
b1110 F
1!
#700000
0!
#705000
b110 $
b110 G
b110 L
b110 Q
b110 T
b110 1#
b110 5#
b110 7#
1*
b1100 F
bz 8#
1!
#710000
0!
#715000
bx $
bx G
bx L
bx Q
bx T
bx 1#
bx 5#
bx 7#
14
1-
0%
0*
b110 8#
b1101 F
1!
#720000
0!
#725000
bz $
bz G
bz L
bz Q
bz T
bz 1#
bz 5#
bz 7#
0-
1%
04
b1110 F
b111 6#
1!
#730000
0!
#735000
b111 $
b111 G
b111 L
b111 Q
b111 T
b111 1#
b111 5#
b111 7#
1*
bz 8#
b1100 F
1!
#740000
0!
#745000
bx $
bx G
bx L
bx Q
bx T
bx 1#
bx 5#
bx 7#
14
1-
0%
0*
b1101 F
b111 8#
1!
#750000
0!
#755000
bz $
bz G
bz L
bz Q
bz T
bz 1#
bz 5#
bz 7#
0-
1%
04
b1000 6#
b1110 F
1!
#760000
0!
